<svg xmlns="http://www.w3.org/2000/svg" width="100%" height="100%" viewBox="0 0 480 360">
    <!-- Derived from shapes-circle-02-t.svg und shapes-ellipse-02-t.svg from the SVG unit test suite
under the 3-clause BSD license-->
    <g fill="green" stroke="#000000">
        <!-- Set cx and cy coordinate to default.-->
        <circle r="50" />

        <!-- Set cx coordinate to default.-->
        <circle cy="100" r="50" />

        <!-- Set cy coordinate to default.-->
        <circle cx="100" r="50" />

        <!-- Set r attribute to 0 (should not display a circle).-->
        <circle cx="100" cy="100" r="0" />

        <!-- Set all values to draw a circle -->
        <circle cx="150" cy="100" r="50" />

        <!-- Set cx and cy coordinate to default.-->
        <ellipse rx="100" ry="50" />

        <!-- Set rx attribute to 0.-->
        <ellipse cx="100" cy="150" rx="0" ry="50" />

        <!-- Set ry attribute to 0.-->
        <ellipse cx="200" cy="50" rx="100" ry="0" />

        <!-- Set all values attribute to drawn an ellipse.-->
        <ellipse cx="250" cy="250" rx="100" ry="50" />
    </g>
</svg>