<svg xmlns="http://www.w3.org/2000/svg" width="100%" height="100%" viewBox="0 0 480 360">
    <!-- Derived from path-data-01|02|03|13|19-t.svg from the SVG unit test suite
under the 3-clause BSD license-->
    <path id="X_curve_MCSmcs" fill="#00ff00" stroke="#00c000"
        d="m 396,258 c -65,0 -100,-50 -100,-50 0,0 -35,-55 -100,-55 m 0,105 c 65,0 100,-50 100,-50 0,0 35,-55 100,-55" />
    <path id="Bez_MQMqz" fill="none" stroke="#0000ff" stroke-width="3"
        d="m 285,20 q 15,100 115,10 m 50,50 Q 375,-20 287,20 Z" />
    <path id="Arc_MaZmAzmaz" fill="#609040" stroke="#000000" stroke-width="3"
        d="   M  30   100      a   40    40       0          0       1      65    50          Z                    m   30       30                         A   20       20              0              0              0             125   230        Z             m   40       24                         a   20       20              0              0              1              65    50        z " />
    <path fill="none" stroke="#000000"
        d="   m   62.00000  56.00000    51.96152   90.00000   -103.92304         0.00000    51.96152  -90.00000   z    m    0.00000   15.00000   38.97114   67.50000   -77.91228         0.00000   38.97114  -67.50000   z  "
        id="path5" />
    <path d="M220 20 L 240 20 260 20 " stroke-width="3" stroke="black" fill="none" id="path7" />
</svg>